{
    "mongodb": {
        "local": {
            "url": "",
            "username": "",
            "password": "",
            "host": "",
            "port": "",
            "database": ""
        },
        "development": {
            "username": "noc_playout",
            "password": "noc%40123",
            "host": "172.31.41.41",
            "port": "27017",
            "database": "noc"
        },
        "production": {}
    }
}